runtime_log.txt
Compiling files...
Model Technology ModelSim ALTERA vlog 10.1d Compiler 2012.11 Nov  2 2012
-- Compiling module test_execute
-- Compiling module select_pc
-- Compiling module fetch_D_pipe_reg
-- Compiling module pc_update
-- Compiling module fetch
-- Compiling module test_memory
-- Compiling module decode
-- Compiling module controller
-- Compiling module test_fetch
-- Compiling module writeback
-- Compiling module test_writeback
-- Compiling module execute
-- Compiling module memory_access
-- Compiling module execute_M_pipe_reg
-- Compiling module test_decode
-- Compiling module top_pipeline_module
-- Compiling module decode_E_pipe_reg
-- Compiling module F_pipe_reg

Top level modules:
	test_execute
	pc_update
	test_memory
	test_fetch
	test_writeback
	test_decode
	top_pipeline_module
Starting simulation with str= test_writeback .
Reading D:/altera/13.0sp1/modelsim_ae/tcl/vsim/pref.tcl 

# 10.1d

# vsim -do {run -all; exit} -c test_writeback 
# //  ModelSim ALTERA 10.1d Nov  2 2012 
# //
# //  Copyright 1991-2012 Mentor Graphics Corporation
# //  All Rights Reserved.
# //
# //  THIS WORK CONTAINS TRADE SECRET AND PROPRIETARY INFORMATION
# //  WHICH IS THE PROPERTY OF MENTOR GRAPHICS CORPORATION OR ITS
# //  LICENSORS AND IS SUBJECT TO LICENSE TERMS.
# //
# Loading work.test_writeback
# Loading work.F_pipe_reg
# Loading work.select_pc
# Loading work.fetch
# Loading work.fetch_D_pipe_reg
# Loading work.decode
# Loading work.decode_E_pipe_reg
# Loading work.execute
# Loading work.execute_M_pipe_reg
# Loading work.memory_access
# Loading work.writeback
# Loading work.controller
# run -all 
# fetch.v:instr_mem initial...
# ------------------rst----D_valC_o<=64'b0;------------------
# ----------begin--------
# IIRMOVQ
# 
# 
# Time=10000
# Fetch:		F_stall_i=0
# f_icode_o=   3|f_ifun_o=   0|f_rA_o=   f|f_rB_o=   2
# F_predPC_o=   0|f_reg=   0|f_pc_o=   0
# f_valC_o=   2|f_valP_o=  10
# 
# INOP
# Decode:		D_stall_i=0|D_bubble_i=0
# D_stat_o=   0
# D_icode_o=   1|D_ifun_o=   0|D_rA_o=  15|D_rB_o=  15
# D_valC_o=   0|D_valP_o=   0|D_pc_o=   0
# d_valA_o=   0|d_valB_o=   0|d_dstE_o=  15|d_dstM_o=  15|d_srcA_o=  15|d_srcB_o=  15
# 
# FORWARDING:
# e_dst_i=  15|e_vale_i=   0|M_dstM_i=  15|m_valM_i=   0|M_dstE_i=  15|M_valE_i=   0
# W_dstM_o=  15|W_valM_o=  15|W_dstE_o=   0|W_valE_o=  15
#                    0
# INOP
# Execute:		E_bubble_i=0
# E_stat_o=   0|e_stat_o=   0|cc_debug_o=   4
# E_icode_o=   1|E_ifun_o=   0|E_dstE_o=  15|E_valA_o=   0|E_valB_o=   0|E_valC_o=   0
# e_valE_o=   0|e_dstE_o=  15|e_cnd_o=   1
# 
# INOP
# Memory:		M_bubble_i=0
# M_stat_o=0
# m_stat_o=0
# M_icode_o=   1|m_valM_o=   0|M_valE_o=   0
# M_dstE_o=  15|M_dstM_o=  15|M_valA_o=   0|M_pc_o=   0
# Memory 144: 16 | 136: 16.
# 
# INOP
# WriteBack:		W_stall_i=0
# W_stat_o=0
# W_icode_o=   1|W_valM_o=   0|W_valE_o=   0|W_dstE_o=  15|W_dstM_o=  15
# 
# controller:
# D_icode_o=   1|d_srcA_o=  15|d_srcB_o=  15
# E_icode_o=   1|E_dstM_o=  15|e_cnd_o=   1
# M_icode_o=   1|m_stat_o=0|W_stat_o=   0
# 
# r          0--                   0
# r          1--                   0
# r          2--                   0
# r          3--                   0
# r          4--                   0
# r          5--                   0
# r          6--                   0
# r          7--                   0
# r          8--                   0
# r          9--                   0
# r         10--                   0
# r         11--                   0
# r         12--                   0
# r         13--                   0
# r         14--                   x
# r         15--                   x
# ----------------------D_valC_o<=f_valC_i;------------------
# IIRMOVQ
# 
# 
# Time=20000
# Fetch:		F_stall_i=0
# f_icode_o=   3|f_ifun_o=   0|f_rA_o=   f|f_rB_o=   1
# F_predPC_o=  10|f_reg=  10|f_pc_o=  10
# f_valC_o=   1|f_valP_o=  20
# 
# IIRMOVQ
# Decode:		D_stall_i=0|D_bubble_i=0
# D_stat_o=   0
# D_icode_o=   3|D_ifun_o=   0|D_rA_o=  15|D_rB_o=   2
# D_valC_o=   2|D_valP_o=  10|D_pc_o=   0
# d_valA_o=   0|d_valB_o=   0|d_dstE_o=   2|d_dstM_o=  15|d_srcA_o=  15|d_srcB_o=  15
# 
# FORWARDING:
# e_dst_i=  15|e_vale_i=   0|M_dstM_i=  15|m_valM_i=   0|M_dstE_i=  15|M_valE_i=   0
# W_dstM_o=  15|W_valM_o=  15|W_dstE_o=   0|W_valE_o=  15
#                    0
# INOP
# Execute:		E_bubble_i=0
# E_stat_o=   0|e_stat_o=   0|cc_debug_o=   4
# E_icode_o=   1|E_ifun_o=   0|E_dstE_o=  15|E_valA_o=   0|E_valB_o=   0|E_valC_o=   0
# e_valE_o=   0|e_dstE_o=  15|e_cnd_o=   1
# 
# INOP
# Memory:		M_bubble_i=0
# M_stat_o=0
# m_stat_o=0
# M_icode_o=   1|m_valM_o=   0|M_valE_o=   0
# M_dstE_o=  15|M_dstM_o=  15|M_valA_o=   0|M_pc_o=   0
# Memory 144: 16 | 136: 16.
# 
# INOP
# WriteBack:		W_stall_i=0
# W_stat_o=0
# W_icode_o=   1|W_valM_o=   0|W_valE_o=   0|W_dstE_o=  15|W_dstM_o=  15
# 
# controller:
# D_icode_o=   3|d_srcA_o=  15|d_srcB_o=  15
# E_icode_o=   1|E_dstM_o=  15|e_cnd_o=   1
# M_icode_o=   1|m_stat_o=0|W_stat_o=   0
# 
# r          0--                   0
# r          1--                   0
# r          2--                   0
# r          3--                   0
# r          4--                   0
# r          5--                   0
# r          6--                   0
# r          7--                   0
# r          8--                   0
# r          9--                   0
# r         10--                   0
# r         11--                   0
# r         12--                   0
# r         13--                   0
# r         14--                   x
# r         15--                   x
# ----------------------D_valC_o<=f_valC_i;------------------
# IIRMOVQ
# 
# 
# Time=30000
# Fetch:		F_stall_i=0
# f_icode_o=   3|f_ifun_o=   0|f_rA_o=   f|f_rB_o=   3
# F_predPC_o=  20|f_reg=  20|f_pc_o=  20
# f_valC_o=   3|f_valP_o=  30
# 
# IIRMOVQ
# Decode:		D_stall_i=0|D_bubble_i=0
# D_stat_o=   0
# D_icode_o=   3|D_ifun_o=   0|D_rA_o=  15|D_rB_o=   1
# D_valC_o=   1|D_valP_o=  20|D_pc_o=  10
# d_valA_o=   0|d_valB_o=   0|d_dstE_o=   1|d_dstM_o=  15|d_srcA_o=  15|d_srcB_o=  15
# 
# FORWARDING:
# e_dst_i=   2|e_vale_i=   2|M_dstM_i=  15|m_valM_i=   0|M_dstE_i=  15|M_valE_i=   0
# W_dstM_o=  15|W_valM_o=  15|W_dstE_o=   0|W_valE_o=  15
#                    0
# IIRMOVQ
# Execute:		E_bubble_i=0
# E_stat_o=   0|e_stat_o=   0|cc_debug_o=   4
# E_icode_o=   3|E_ifun_o=   0|E_dstE_o=   2|E_valA_o=   0|E_valB_o=   0|E_valC_o=   2
# e_valE_o=   2|e_dstE_o=   2|e_cnd_o=   1
# 
# INOP
# Memory:		M_bubble_i=0
# M_stat_o=0
# m_stat_o=0
# M_icode_o=   1|m_valM_o=   0|M_valE_o=   0
# M_dstE_o=  15|M_dstM_o=  15|M_valA_o=   0|M_pc_o=   0
# Memory 144: 16 | 136: 16.
# 
# INOP
# WriteBack:		W_stall_i=0
# W_stat_o=0
# W_icode_o=   1|W_valM_o=   0|W_valE_o=   0|W_dstE_o=  15|W_dstM_o=  15
# 
# controller:
# D_icode_o=   3|d_srcA_o=  15|d_srcB_o=  15
# E_icode_o=   3|E_dstM_o=  15|e_cnd_o=   1
# M_icode_o=   1|m_stat_o=0|W_stat_o=   0
# 
# r          0--                   0
# r          1--                   0
# r          2--                   0
# r          3--                   0
# r          4--                   0
# r          5--                   0
# r          6--                   0
# r          7--                   0
# r          8--                   0
# r          9--                   0
# r         10--                   0
# r         11--                   0
# r         12--                   0
# r         13--                   0
# r         14--                   x
# r         15--                   x
# ----------------------D_valC_o<=f_valC_i;------------------
# IIRMOVQ
# 
# 
# Time=40000
# Fetch:		F_stall_i=0
# f_icode_o=   3|f_ifun_o=   0|f_rA_o=   f|f_rB_o=   4
# F_predPC_o=  30|f_reg=  30|f_pc_o=  30
# f_valC_o= 144|f_valP_o=  40
# 
# IIRMOVQ
# Decode:		D_stall_i=0|D_bubble_i=0
# D_stat_o=   0
# D_icode_o=   3|D_ifun_o=   0|D_rA_o=  15|D_rB_o=   3
# D_valC_o=   3|D_valP_o=  30|D_pc_o=  20
# d_valA_o=   0|d_valB_o=   0|d_dstE_o=   3|d_dstM_o=  15|d_srcA_o=  15|d_srcB_o=  15
# 
# FORWARDING:
# e_dst_i=   1|e_vale_i=   1|M_dstM_i=  15|m_valM_i=   0|M_dstE_i=   2|M_valE_i=   2
# W_dstM_o=  15|W_valM_o=  15|W_dstE_o=   0|W_valE_o=  15
#                    0
# IIRMOVQ
# Execute:		E_bubble_i=0
# E_stat_o=   0|e_stat_o=   0|cc_debug_o=   4
# E_icode_o=   3|E_ifun_o=   0|E_dstE_o=   1|E_valA_o=   0|E_valB_o=   0|E_valC_o=   1
# e_valE_o=   1|e_dstE_o=   1|e_cnd_o=   1
# 
# IIRMOVQ
# Memory:		M_bubble_i=0
# M_stat_o=0
# m_stat_o=0
# M_icode_o=   3|m_valM_o=   0|M_valE_o=   2
# M_dstE_o=   2|M_dstM_o=  15|M_valA_o=   0|M_pc_o=   0
# Memory 144: 16 | 136: 16.
# 
# INOP
# WriteBack:		W_stall_i=0
# W_stat_o=0
# W_icode_o=   1|W_valM_o=   0|W_valE_o=   0|W_dstE_o=  15|W_dstM_o=  15
# 
# controller:
# D_icode_o=   3|d_srcA_o=  15|d_srcB_o=  15
# E_icode_o=   3|E_dstM_o=  15|e_cnd_o=   1
# M_icode_o=   3|m_stat_o=0|W_stat_o=   0
# 
# r          0--                   0
# r          1--                   0
# r          2--                   0
# r          3--                   0
# r          4--                   0
# r          5--                   0
# r          6--                   0
# r          7--                   0
# r          8--                   0
# r          9--                   0
# r         10--                   0
# r         11--                   0
# r         12--                   0
# r         13--                   0
# r         14--                   x
# r         15--                   x
# ----------------------D_valC_o<=f_valC_i;------------------
# IIRMOVQ
# 
# 
# Time=50000
# Fetch:		F_stall_i=0
# f_icode_o=   3|f_ifun_o=   0|f_rA_o=   f|f_rB_o=   8
# F_predPC_o=  40|f_reg=  40|f_pc_o=  40
# f_valC_o=   8|f_valP_o=  50
# 
# IIRMOVQ
# Decode:		D_stall_i=0|D_bubble_i=0
# D_stat_o=   0
# D_icode_o=   3|D_ifun_o=   0|D_rA_o=  15|D_rB_o=   4
# D_valC_o= 144|D_valP_o=  40|D_pc_o=  30
# d_valA_o=   0|d_valB_o=   0|d_dstE_o=   4|d_dstM_o=  15|d_srcA_o=  15|d_srcB_o=  15
# 
# FORWARDING:
# e_dst_i=   3|e_vale_i=   3|M_dstM_i=  15|m_valM_i=   0|M_dstE_i=   1|M_valE_i=   1
# W_dstM_o=  15|W_valM_o=  15|W_dstE_o=   0|W_valE_o=   2
#                    2
# IIRMOVQ
# Execute:		E_bubble_i=0
# E_stat_o=   0|e_stat_o=   0|cc_debug_o=   4
# E_icode_o=   3|E_ifun_o=   0|E_dstE_o=   3|E_valA_o=   0|E_valB_o=   0|E_valC_o=   3
# e_valE_o=   3|e_dstE_o=   3|e_cnd_o=   1
# 
# IIRMOVQ
# Memory:		M_bubble_i=0
# M_stat_o=0
# m_stat_o=0
# M_icode_o=   3|m_valM_o=   0|M_valE_o=   1
# M_dstE_o=   1|M_dstM_o=  15|M_valA_o=   0|M_pc_o=  10
# Memory 144: 16 | 136: 16.
# 
# IIRMOVQ
# WriteBack:		W_stall_i=0
# W_stat_o=0
# W_icode_o=   3|W_valM_o=   0|W_valE_o=   2|W_dstE_o=   2|W_dstM_o=  15
# 
# controller:
# D_icode_o=   3|d_srcA_o=  15|d_srcB_o=  15
# E_icode_o=   3|E_dstM_o=  15|e_cnd_o=   1
# M_icode_o=   3|m_stat_o=0|W_stat_o=   0
# 
# r          0--                   0
# r          1--                   0
# r          2--                   0
# r          3--                   0
# r          4--                   0
# r          5--                   0
# r          6--                   0
# r          7--                   0
# r          8--                   0
# r          9--                   0
# r         10--                   0
# r         11--                   0
# r         12--                   0
# r         13--                   0
# r         14--                   x
# r         15--                   x
# ----------------------D_valC_o<=f_valC_i;------------------
# IIRMOVQ
# 
# 
# Time=60000
# Fetch:		F_stall_i=0
# f_icode_o=   3|f_ifun_o=   0|f_rA_o=   f|f_rB_o=   9
# F_predPC_o=  50|f_reg=  50|f_pc_o=  50
# f_valC_o=  33|f_valP_o=  60
# 
# IIRMOVQ
# Decode:		D_stall_i=0|D_bubble_i=0
# D_stat_o=   0
# D_icode_o=   3|D_ifun_o=   0|D_rA_o=  15|D_rB_o=   8
# D_valC_o=   8|D_valP_o=  50|D_pc_o=  40
# d_valA_o=   0|d_valB_o=   0|d_dstE_o=   8|d_dstM_o=  15|d_srcA_o=  15|d_srcB_o=  15
# 
# FORWARDING:
# e_dst_i=   4|e_vale_i= 144|M_dstM_i=  15|m_valM_i=   0|M_dstE_i=   3|M_valE_i=   3
# W_dstM_o=  15|W_valM_o=  15|W_dstE_o=   0|W_valE_o=   1
#                    1
# IIRMOVQ
# Execute:		E_bubble_i=0
# E_stat_o=   0|e_stat_o=   0|cc_debug_o=   4
# E_icode_o=   3|E_ifun_o=   0|E_dstE_o=   4|E_valA_o=   0|E_valB_o=   0|E_valC_o= 144
# e_valE_o= 144|e_dstE_o=   4|e_cnd_o=   1
# 
# IIRMOVQ
# Memory:		M_bubble_i=0
# M_stat_o=0
# m_stat_o=0
# M_icode_o=   3|m_valM_o=   0|M_valE_o=   3
# M_dstE_o=   3|M_dstM_o=  15|M_valA_o=   0|M_pc_o=  20
# Memory 144: 16 | 136: 16.
# 
# IIRMOVQ
# WriteBack:		W_stall_i=0
# W_stat_o=0
# W_icode_o=   3|W_valM_o=   0|W_valE_o=   1|W_dstE_o=   1|W_dstM_o=  15
# 
# controller:
# D_icode_o=   3|d_srcA_o=  15|d_srcB_o=  15
# E_icode_o=   3|E_dstM_o=  15|e_cnd_o=   1
# M_icode_o=   3|m_stat_o=0|W_stat_o=   0
# 
# r          0--                   0
# r          1--                   0
# r          2--                   2
# r          3--                   0
# r          4--                   0
# r          5--                   0
# r          6--                   0
# r          7--                   0
# r          8--                   0
# r          9--                   0
# r         10--                   0
# r         11--                   0
# r         12--                   0
# r         13--                   0
# r         14--                   x
# r         15--                   x
# ----------------------D_valC_o<=f_valC_i;------------------
# IIRMOVQ
# 
# 
# Time=70000
# Fetch:		F_stall_i=0
# f_icode_o=   3|f_ifun_o=   0|f_rA_o=   f|f_rB_o=   e
# F_predPC_o=  60|f_reg=  60|f_pc_o=  60
# f_valC_o=   4|f_valP_o=  70
# 
# IIRMOVQ
# Decode:		D_stall_i=0|D_bubble_i=0
# D_stat_o=   0
# D_icode_o=   3|D_ifun_o=   0|D_rA_o=  15|D_rB_o=   9
# D_valC_o=  33|D_valP_o=  60|D_pc_o=  50
# d_valA_o=   0|d_valB_o=   0|d_dstE_o=   9|d_dstM_o=  15|d_srcA_o=  15|d_srcB_o=  15
# 
# FORWARDING:
# e_dst_i=   8|e_vale_i=   8|M_dstM_i=  15|m_valM_i=   0|M_dstE_i=   4|M_valE_i= 144
# W_dstM_o=  15|W_valM_o=  15|W_dstE_o=   0|W_valE_o=   3
#                    3
# IIRMOVQ
# Execute:		E_bubble_i=0
# E_stat_o=   0|e_stat_o=   0|cc_debug_o=   4
# E_icode_o=   3|E_ifun_o=   0|E_dstE_o=   8|E_valA_o=   0|E_valB_o=   0|E_valC_o=   8
# e_valE_o=   8|e_dstE_o=   8|e_cnd_o=   1
# 
# IIRMOVQ
# Memory:		M_bubble_i=0
# M_stat_o=0
# m_stat_o=0
# M_icode_o=   3|m_valM_o=   0|M_valE_o= 144
# M_dstE_o=   4|M_dstM_o=  15|M_valA_o=   0|M_pc_o=  30
# Memory 144: 16 | 136: 16.
# 
# IIRMOVQ
# WriteBack:		W_stall_i=0
# W_stat_o=0
# W_icode_o=   3|W_valM_o=   0|W_valE_o=   3|W_dstE_o=   3|W_dstM_o=  15
# 
# controller:
# D_icode_o=   3|d_srcA_o=  15|d_srcB_o=  15
# E_icode_o=   3|E_dstM_o=  15|e_cnd_o=   1
# M_icode_o=   3|m_stat_o=0|W_stat_o=   0
# 
# r          0--                   0
# r          1--                   1
# r          2--                   2
# r          3--                   0
# r          4--                   0
# r          5--                   0
# r          6--                   0
# r          7--                   0
# r          8--                   0
# r          9--                   0
# r         10--                   0
# r         11--                   0
# r         12--                   0
# r         13--                   0
# r         14--                   x
# r         15--                   x
# ----------------------D_valC_o<=f_valC_i;------------------
# ICMOVQ
# 
# 
# Time=80000
# Fetch:		F_stall_i=0
# f_icode_o=   2|f_ifun_o=   0|f_rA_o=   8|f_rB_o=   a
# F_predPC_o=  70|f_reg=  70|f_pc_o=  70
# f_valC_o=   0|f_valP_o=  72
# 
# IIRMOVQ
# Decode:		D_stall_i=0|D_bubble_i=0
# D_stat_o=   0
# D_icode_o=   3|D_ifun_o=   0|D_rA_o=  15|D_rB_o=  14
# D_valC_o=   4|D_valP_o=  70|D_pc_o=  60
# d_valA_o=   0|d_valB_o=   0|d_dstE_o=  14|d_dstM_o=  15|d_srcA_o=  15|d_srcB_o=  15
# 
# FORWARDING:
# e_dst_i=   9|e_vale_i=  33|M_dstM_i=  15|m_valM_i=   0|M_dstE_i=   8|M_valE_i=   8
# W_dstM_o=  15|W_valM_o=  15|W_dstE_o=   0|W_valE_o=   4
#                  144
# IIRMOVQ
# Execute:		E_bubble_i=0
# E_stat_o=   0|e_stat_o=   0|cc_debug_o=   4
# E_icode_o=   3|E_ifun_o=   0|E_dstE_o=   9|E_valA_o=   0|E_valB_o=   0|E_valC_o=  33
# e_valE_o=  33|e_dstE_o=   9|e_cnd_o=   1
# 
# IIRMOVQ
# Memory:		M_bubble_i=0
# M_stat_o=0
# m_stat_o=0
# M_icode_o=   3|m_valM_o=   0|M_valE_o=   8
# M_dstE_o=   8|M_dstM_o=  15|M_valA_o=   0|M_pc_o=  40
# Memory 144: 16 | 136: 16.
# 
# IIRMOVQ
# WriteBack:		W_stall_i=0
# W_stat_o=0
# W_icode_o=   3|W_valM_o=   0|W_valE_o= 144|W_dstE_o=   4|W_dstM_o=  15
# 
# controller:
# D_icode_o=   3|d_srcA_o=  15|d_srcB_o=  15
# E_icode_o=   3|E_dstM_o=  15|e_cnd_o=   1
# M_icode_o=   3|m_stat_o=0|W_stat_o=   0
# 
# r          0--                   0
# r          1--                   1
# r          2--                   2
# r          3--                   3
# r          4--                   0
# r          5--                   0
# r          6--                   0
# r          7--                   0
# r          8--                   0
# r          9--                   0
# r         10--                   0
# r         11--                   0
# r         12--                   0
# r         13--                   0
# r         14--                   x
# r         15--                   x
# ----------------------D_valC_o<=f_valC_i;------------------
# ICMOVQ
# 
# 
# Time=90000
# Fetch:		F_stall_i=0
# f_icode_o=   2|f_ifun_o=   0|f_rA_o=   1|f_rB_o=   b
# F_predPC_o=  72|f_reg=  72|f_pc_o=  72
# f_valC_o=   0|f_valP_o=  74
# 
# ICMOVQ
# Decode:		D_stall_i=0|D_bubble_i=0
# D_stat_o=   0
# D_icode_o=   2|D_ifun_o=   0|D_rA_o=   8|D_rB_o=  10
# D_valC_o=   0|D_valP_o=  72|D_pc_o=  70
# d_valA_o=   8|d_valB_o=   0|d_dstE_o=  10|d_dstM_o=  15|d_srcA_o=   8|d_srcB_o=  15
# 
# FORWARDING:
# e_dst_i=  14|e_vale_i=   4|M_dstM_i=  15|m_valM_i=   0|M_dstE_i=   9|M_valE_i=  33
# W_dstM_o=  15|W_valM_o=  15|W_dstE_o=   0|W_valE_o=   8
#                    8
# IIRMOVQ
# Execute:		E_bubble_i=0
# E_stat_o=   0|e_stat_o=   0|cc_debug_o=   4
# E_icode_o=   3|E_ifun_o=   0|E_dstE_o=  14|E_valA_o=   0|E_valB_o=   0|E_valC_o=   4
# e_valE_o=   4|e_dstE_o=  14|e_cnd_o=   1
# 
# IIRMOVQ
# Memory:		M_bubble_i=0
# M_stat_o=0
# m_stat_o=0
# M_icode_o=   3|m_valM_o=   0|M_valE_o=  33
# M_dstE_o=   9|M_dstM_o=  15|M_valA_o=   0|M_pc_o=  50
# Memory 144: 16 | 136: 16.
# 
# IIRMOVQ
# WriteBack:		W_stall_i=0
# W_stat_o=0
# W_icode_o=   3|W_valM_o=   0|W_valE_o=   8|W_dstE_o=   8|W_dstM_o=  15
# 
# controller:
# D_icode_o=   2|d_srcA_o=   8|d_srcB_o=  15
# E_icode_o=   3|E_dstM_o=  15|e_cnd_o=   1
# M_icode_o=   3|m_stat_o=0|W_stat_o=   0
# 
# r          0--                   0
# r          1--                   1
# r          2--                   2
# r          3--                   3
# r          4--                 144
# r          5--                   0
# r          6--                   0
# r          7--                   0
# r          8--                   0
# r          9--                   0
# r         10--                   0
# r         11--                   0
# r         12--                   0
# r         13--                   0
# r         14--                   x
# r         15--                   x
# ----------------------D_valC_o<=f_valC_i;------------------
# ICMOVQ
# 
# 
# Time=100000
# Fetch:		F_stall_i=0
# f_icode_o=   2|f_ifun_o=   0|f_rA_o=   2|f_rB_o=   c
# F_predPC_o=  74|f_reg=  74|f_pc_o=  74
# f_valC_o=   0|f_valP_o=  76
# 
# ICMOVQ
# Decode:		D_stall_i=0|D_bubble_i=0
# D_stat_o=   0
# D_icode_o=   2|D_ifun_o=   0|D_rA_o=   1|D_rB_o=  11
# D_valC_o=   0|D_valP_o=  74|D_pc_o=  72
# d_valA_o=   1|d_valB_o=   0|d_dstE_o=  11|d_dstM_o=  15|d_srcA_o=   1|d_srcB_o=  15
# 
# FORWARDING:
# e_dst_i=  10|e_vale_i=   8|M_dstM_i=  15|m_valM_i=   0|M_dstE_i=  14|M_valE_i=   4
# W_dstM_o=  15|W_valM_o=  15|W_dstE_o=   0|W_valE_o=   9
#                   33
# ICMOVQ
# Execute:		E_bubble_i=0
# E_stat_o=   0|e_stat_o=   0|cc_debug_o=   4
# E_icode_o=   2|E_ifun_o=   0|E_dstE_o=  10|E_valA_o=   8|E_valB_o=   0|E_valC_o=   0
# e_valE_o=   8|e_dstE_o=  10|e_cnd_o=   1
# 
# IIRMOVQ
# Memory:		M_bubble_i=0
# M_stat_o=0
# m_stat_o=0
# M_icode_o=   3|m_valM_o=   0|M_valE_o=   4
# M_dstE_o=  14|M_dstM_o=  15|M_valA_o=   0|M_pc_o=  60
# Memory 144: 16 | 136: 16.
# 
# IIRMOVQ
# WriteBack:		W_stall_i=0
# W_stat_o=0
# W_icode_o=   3|W_valM_o=   0|W_valE_o=  33|W_dstE_o=   9|W_dstM_o=  15
# 
# controller:
# D_icode_o=   2|d_srcA_o=   1|d_srcB_o=  15
# E_icode_o=   2|E_dstM_o=  15|e_cnd_o=   1
# M_icode_o=   3|m_stat_o=0|W_stat_o=   0
# 
# r          0--                   0
# r          1--                   1
# r          2--                   2
# r          3--                   3
# r          4--                 144
# r          5--                   0
# r          6--                   0
# r          7--                   0
# r          8--                   8
# r          9--                   0
# r         10--                   0
# r         11--                   0
# r         12--                   0
# r         13--                   0
# r         14--                   x
# r         15--                   x
# ----------------------D_valC_o<=f_valC_i;------------------
# ICMOVQ
# 
# 
# Time=110000
# Fetch:		F_stall_i=0
# f_icode_o=   2|f_ifun_o=   0|f_rA_o=   3|f_rB_o=   d
# F_predPC_o=  76|f_reg=  76|f_pc_o=  76
# f_valC_o=   0|f_valP_o=  78
# 
# ICMOVQ
# Decode:		D_stall_i=0|D_bubble_i=0
# D_stat_o=   0
# D_icode_o=   2|D_ifun_o=   0|D_rA_o=   2|D_rB_o=  12
# D_valC_o=   0|D_valP_o=  76|D_pc_o=  74
# d_valA_o=   2|d_valB_o=   0|d_dstE_o=  12|d_dstM_o=  15|d_srcA_o=   2|d_srcB_o=  15
# 
# FORWARDING:
# e_dst_i=  11|e_vale_i=   1|M_dstM_i=  15|m_valM_i=   0|M_dstE_i=  10|M_valE_i=   8
# W_dstM_o=  15|W_valM_o=  15|W_dstE_o=   0|W_valE_o=  14
#                    4
# ICMOVQ
# Execute:		E_bubble_i=0
# E_stat_o=   0|e_stat_o=   0|cc_debug_o=   4
# E_icode_o=   2|E_ifun_o=   0|E_dstE_o=  11|E_valA_o=   1|E_valB_o=   0|E_valC_o=   0
# e_valE_o=   1|e_dstE_o=  11|e_cnd_o=   1
# 
# ICMOVQ
# Memory:		M_bubble_i=0
# M_stat_o=0
# m_stat_o=0
# M_icode_o=   2|m_valM_o=   0|M_valE_o=   8
# M_dstE_o=  10|M_dstM_o=  15|M_valA_o=   8|M_pc_o=  70
# Memory 144: 16 | 136: 16.
# 
# IIRMOVQ
# WriteBack:		W_stall_i=0
# W_stat_o=0
# W_icode_o=   3|W_valM_o=   0|W_valE_o=   4|W_dstE_o=  14|W_dstM_o=  15
# 
# controller:
# D_icode_o=   2|d_srcA_o=   2|d_srcB_o=  15
# E_icode_o=   2|E_dstM_o=  15|e_cnd_o=   1
# M_icode_o=   2|m_stat_o=0|W_stat_o=   0
# 
# r          0--                   0
# r          1--                   1
# r          2--                   2
# r          3--                   3
# r          4--                 144
# r          5--                   0
# r          6--                   0
# r          7--                   0
# r          8--                   8
# r          9--                  33
# r         10--                   0
# r         11--                   0
# r         12--                   0
# r         13--                   0
# r         14--                   x
# r         15--                   x
# ----------------------D_valC_o<=f_valC_i;------------------
# IOPQ
# 
# 
# Time=120000
# Fetch:		F_stall_i=0
# f_icode_o=   6|f_ifun_o=   0|f_rA_o=   8|f_rB_o=   a
# F_predPC_o=  78|f_reg=  78|f_pc_o=  78
# f_valC_o=   0|f_valP_o=  80
# 
# ICMOVQ
# Decode:		D_stall_i=0|D_bubble_i=0
# D_stat_o=   0
# D_icode_o=   2|D_ifun_o=   0|D_rA_o=   3|D_rB_o=  13
# D_valC_o=   0|D_valP_o=  78|D_pc_o=  76
# d_valA_o=   3|d_valB_o=   0|d_dstE_o=  13|d_dstM_o=  15|d_srcA_o=   3|d_srcB_o=  15
# 
# FORWARDING:
# e_dst_i=  12|e_vale_i=   2|M_dstM_i=  15|m_valM_i=   0|M_dstE_i=  11|M_valE_i=   1
# W_dstM_o=  15|W_valM_o=  15|W_dstE_o=   0|W_valE_o=  10
#                    8
# ICMOVQ
# Execute:		E_bubble_i=0
# E_stat_o=   0|e_stat_o=   0|cc_debug_o=   4
# E_icode_o=   2|E_ifun_o=   0|E_dstE_o=  12|E_valA_o=   2|E_valB_o=   0|E_valC_o=   0
# e_valE_o=   2|e_dstE_o=  12|e_cnd_o=   1
# 
# ICMOVQ
# Memory:		M_bubble_i=0
# M_stat_o=0
# m_stat_o=0
# M_icode_o=   2|m_valM_o=   0|M_valE_o=   1
# M_dstE_o=  11|M_dstM_o=  15|M_valA_o=   1|M_pc_o=  72
# Memory 144: 16 | 136: 16.
# 
# ICMOVQ
# WriteBack:		W_stall_i=0
# W_stat_o=0
# W_icode_o=   2|W_valM_o=   0|W_valE_o=   8|W_dstE_o=  10|W_dstM_o=  15
# 
# controller:
# D_icode_o=   2|d_srcA_o=   3|d_srcB_o=  15
# E_icode_o=   2|E_dstM_o=  15|e_cnd_o=   1
# M_icode_o=   2|m_stat_o=0|W_stat_o=   0
# 
# r          0--                   0
# r          1--                   1
# r          2--                   2
# r          3--                   3
# r          4--                 144
# r          5--                   0
# r          6--                   0
# r          7--                   0
# r          8--                   8
# r          9--                  33
# r         10--                   0
# r         11--                   0
# r         12--                   0
# r         13--                   0
# r         14--                   4
# r         15--                   x
# ----------------------D_valC_o<=f_valC_i;------------------
# IOPQ
# 
# 
# Time=130000
# Fetch:		F_stall_i=0
# f_icode_o=   6|f_ifun_o=   1|f_rA_o=   8|f_rB_o=   a
# F_predPC_o=  80|f_reg=  80|f_pc_o=  80
# f_valC_o=   0|f_valP_o=  82
# 
# IOPQ
# Decode:		D_stall_i=0|D_bubble_i=0
# D_stat_o=   0
# D_icode_o=   6|D_ifun_o=   0|D_rA_o=   8|D_rB_o=  10
# D_valC_o=   0|D_valP_o=  80|D_pc_o=  78
# d_valA_o=   8|d_valB_o=   8|d_dstE_o=  10|d_dstM_o=  15|d_srcA_o=   8|d_srcB_o=  10
# 
# FORWARDING:
# e_dst_i=  13|e_vale_i=   3|M_dstM_i=  15|m_valM_i=   0|M_dstE_i=  12|M_valE_i=   2
# W_dstM_o=  15|W_valM_o=  15|W_dstE_o=   0|W_valE_o=  11
#                    1
# ICMOVQ
# Execute:		E_bubble_i=0
# E_stat_o=   0|e_stat_o=   0|cc_debug_o=   4
# E_icode_o=   2|E_ifun_o=   0|E_dstE_o=  13|E_valA_o=   3|E_valB_o=   0|E_valC_o=   0
# e_valE_o=   3|e_dstE_o=  13|e_cnd_o=   1
# 
# ICMOVQ
# Memory:		M_bubble_i=0
# M_stat_o=0
# m_stat_o=0
# M_icode_o=   2|m_valM_o=   0|M_valE_o=   2
# M_dstE_o=  12|M_dstM_o=  15|M_valA_o=   2|M_pc_o=  74
# Memory 144: 16 | 136: 16.
# 
# ICMOVQ
# WriteBack:		W_stall_i=0
# W_stat_o=0
# W_icode_o=   2|W_valM_o=   0|W_valE_o=   1|W_dstE_o=  11|W_dstM_o=  15
# 
# controller:
# D_icode_o=   6|d_srcA_o=   8|d_srcB_o=  10
# E_icode_o=   2|E_dstM_o=  15|e_cnd_o=   1
# M_icode_o=   2|m_stat_o=0|W_stat_o=   0
# 
# r          0--                   0
# r          1--                   1
# r          2--                   2
